R in Finance Draft Paper
…
Next, the split-apply-combine framework is used to group the prices by stock symbol and to calculate the logarithmic daily returns. The log returns are used to create a more normal distribution. The transform is applied using tq_transform, which is used in situations where periodicity changes (or can change). The quantmod OHLC (open, high, low, close) notation is used to collect the adjusted prices (ohlc_fun = Ad) and send these prices to the periodReturn function (transform_fun = periodReturn). The additional arguments, period = "daily" and type = "log" are passed to the transformation function, which is periodReturn. The col_rename = "dlr" is a quick renaming function for the output column. In this case, dlr refers to daily log returns. The daily log returns (DLR) for each of the 502 groups of stock symbols is generated below.

sp500_returns <- sp500_stock_prices %>%
    group_by(symbol) %>%
    tq_transform(ohlc_fun = Ad, transform_fun = periodReturn, 
                 period = "daily", type = "log", col_rename = "dlr")
sp500_returns

## Source: local data frame [1,205,845 x 3]
## Groups: symbol [502]
## 
##    symbol       date          dlr
##     <chr>     <date>        <dbl>
## 1     MMM 2007-01-03  0.000000000
## 2     MMM 2007-01-04 -0.003969091
## 3     MMM 2007-01-05 -0.006822440
## 4     MMM 2007-01-08  0.002193382
## 5     MMM 2007-01-09  0.001159338
## 6     MMM 2007-01-10  0.002186048
## 7     MMM 2007-01-11  0.010223770
## 8     MMM 2007-01-12  0.008986823
## 9     MMM 2007-01-16  0.002516944
## 10    MMM 2007-01-17 -0.008203410
## # ... with 1,205,835 more rows

Next, the mean and standard deviation of the daily log returns are used to evaluate and compare the stocks. The easiest way is to use tq_performance, which enables applying the PerformanceAnalytics performance functions to tidy data frames of asset or portfolio returns. The table.Stats function returns the arithmetic mean and standard deviation along with a number of other useful statistics that characterize the returns.

sp500_stats <- sp500_returns %>%
    tq_performance(Ra = dlr, performance_fun = table.Stats, ci = 0.95, digits = 6) 
sp500_stats

## Source: local data frame [502 x 17]
## Groups: symbol [502]
## 
##    symbol ArithmeticMean GeometricMean  Kurtosis `LCLMean(0.95)`  Maximum
##     <chr>          <dbl>         <dbl>     <dbl>           <dbl>    <dbl>
## 1     MMM       0.000431      0.000331  5.806040       -0.000120 0.094204
## 2     ABT       0.000302      0.000215  6.294066       -0.000211 0.091903
## 3    ABBV       0.000714      0.000565  3.868658       -0.000350 0.095982
## 4     ACN       0.000543      0.000404  8.532566       -0.000108 0.151577
## 5    ATVI       0.000604      0.000359 10.735599       -0.000263 0.209206
## 6     AYI       0.000701      0.000420  6.011008       -0.000225 0.161304
## 7    ADBE       0.000376      0.000147  8.992646       -0.000457 0.134165
## 8     AAP       0.000634      0.000430 14.825940       -0.000156 0.153215
## 9     AET       0.000453      0.000208  7.370411       -0.000410 0.163419
## 10    AMG       0.000126     -0.000289  8.848371       -0.000996 0.211618
## # ... with 492 more rows, and 11 more variables: Median <dbl>,
## #   Minimum <dbl>, NAs <dbl>, Observations <dbl>, Quartile1 <dbl>,
## #   Quartile3 <dbl>, SEMean <dbl>, Skewness <dbl>, Stdev <dbl>,
## #   `UCLMean(0.95)` <dbl>, Variance <dbl>
…
Next, transform to monthly returns using the split-apply-combine framework. Use group_by to group on the symbol column, and tq_transform to transform the adjusted prices to monthly arithmetic returns. Note that FB was actively traded for a full year begining in 2013, so it makes sense to compare the investments since then.

FANG_returns <- FANG %>%
    filter(date >= ymd("2013-01-01")) %>%
    group_by(symbol) %>%
    tq_transform(ohlc_fun = Ad,
                 transform_fun = periodReturn,
                 period = "monthly",
                 col_rename = "returns")
FANG_returns

## Source: local data frame [192 x 3]
## Groups: symbol [4]
## 
##    symbol       date       returns
##     <chr>     <date>         <dbl>
## 1      FB 2013-01-31  0.1064285714
## 2      FB 2013-02-28 -0.1204002582
## 3      FB 2013-03-28 -0.0612844037
## 4      FB 2013-04-30  0.0856137608
## 5      FB 2013-05-31 -0.1231544833
## 6      FB 2013-06-28  0.0217658727
## 7      FB 2013-07-31  0.4790996977
## 8      FB 2013-08-30  0.1220109272
## 9      FB 2013-09-30  0.2165172871
## 10     FB 2013-10-31 -0.0003981883
## # ... with 182 more rows
…
Make a portfolio by repeating the stock returns

Create a weights table to map weights of various portfolios

Aggregate the portfolios using tq_portfolio, a wrapper for PerformanceAnalytics::Return.portfolio

Step 1: Make a portfolio by repeating the stock returns

Use tq_repeat_df to repeat n = 4 times. This function grows the data frame length-wise, adding an index column named portfolio, and grouping by portfolio. We now have four groups that will be used as portfolios.

FANG_returns_mult <- FANG_returns %>%
    tq_repeat_df(n = 4)
FANG_returns_mult

## Source: local data frame [768 x 4]
## Groups: portfolio [4]
## 
##    portfolio symbol       date       returns
##        <int>  <chr>     <date>         <dbl>
## 1          1     FB 2013-01-31  0.1064285714
## 2          1     FB 2013-02-28 -0.1204002582
## 3          1     FB 2013-03-28 -0.0612844037
## 4          1     FB 2013-04-30  0.0856137608
## 5          1     FB 2013-05-31 -0.1231544833
## 6          1     FB 2013-06-28  0.0217658727
## 7          1     FB 2013-07-31  0.4790996977
## 8          1     FB 2013-08-30  0.1220109272
## 9          1     FB 2013-09-30  0.2165172871
## 10         1     FB 2013-10-31 -0.0003981883
## # ... with 758 more rows
…
